{
	"plugins":{
		"AIW_ArmorPiercePlugin":"data.scripts.plugins.AIW_ArmorPiercePlugin",
		"AIW_ForcefieldPlugin":"data.scripts.plugins.AIW_ForcefieldPlugin",
		"AIW_GravityDrainPlugin":"data.scripts.plugins.AIW_GravityDrainPlugin",
		"NZL_WeaselDronePlugin":"data.scripts.plugins.NZL_WeaselDronePlugin"
	},
	"graphics":{
		"AIW_forcefield":{
			"forcefield":"graphics/AIWar/forcefield/forcefield.png"
		},
		"AIW_gravityDrain":{
			"gravity":"graphics/AIWar/fx/gravity.png",
			"gravring":"graphics/AIWar/fx/gravring.png"
		}
	}
}