id,type,frame,magnitude,map,path
spire_matrix_armorrot,turret,1,,material,graphics/AIWar/blank.png
spire_matrix_frigate,turret,1,,material,graphics/AIWar/blank.png
spire_matrix_armorrot,turret,1,1,normal,graphics/AIWar/blank.png
spire_matrix_frigate,turret,1,1,normal,graphics/AIWar/blank.png
spire_matrix_armorrot,turret,1,,surface,graphics/AIWar/blank.png
spire_matrix_frigate,turret,1,,surface,graphics/AIWar/blank.png
